…
    ##  [1] "Package"               "LibPath"              
    ##  [3] "Version"               "Priority"             
    ##  [5] "Depends"               "Imports"              
    ##  [7] "LinkingTo"             "Suggests"             
    ##  [9] "Enhances"              "License"              
    ## [11] "License_is_FOSS"       "License_restricts_use"
    ## [13] "OS_type"               "MD5sum"               
    ## [15] "NeedsCompilation"      "Built"

``` r
data %>% count(Package)
```

    ## # A tibble: 292 x 2
    ##    Package             n
    ##    <chr>           <int>
    ##  1 acepack             1
    ##  2 ada                 1
    ##  3 additivityTests     1
    ##  4 akima               1
    ##  5 amap                1
    ##  6 arules              1
    ##  7 arulesViz           1
    ##  8 assertthat          1
    ##  9 backports           1
    ## 10 base                1
    ## # ... with 282 more rows

``` r
data %>% count(Package, NeedsCompilation)
```

    ## # A tibble: 292 x 3
    ##    Package         NeedsCompilation     n
    ##    <chr>           <chr>            <int>
    ##  1 acepack         yes                  1
    ##  2 ada             no                   1
    ##  3 additivityTests no                   1
    ##  4 akima           yes                  1
    ##  5 amap            yes                  1
    ##  6 arules          yes                  1
    ##  7 arulesViz       no                   1
    ##  8 assertthat      no                   1
    ##  9 backports       yes                  1
    ## 10 base            <NA>                 1
    ## # ... with 282 more rows
…
